{
  "version":1,
  "product":"default",
  "up_time": 20220808,
  "block_enable":true,
  "block_start":[
    "com.oneapp.max.cleaner.booster",
    "com.cleanmaster.mguard",
    "com.antivirus.speed.cleaner",
    "com.rocket.cleaner.app",
    "com.rocket.tools.clean.antivirus.master",
    "com.hyperspeed.rocketclean.pro",
    "com.oneapp.max.security.pro",
    "com.ludashi.dualspace"
  ]
}
